{
    "status": "success",
    "message": "Calendars fetched successfully.",
    "result": {
"personalShareTemplate": "Hi, It was nice talking to you. You can book your appointment slot by following the link\n\n{share_link}\n\nTap on my RepCard to get the contact info. The link is below:\n{closer_profile_link}\n\nThank you\nJitender",
            "generalShareTemplate": "Hi, It was nice talking to you. You can book your appointment slot by following the link\n\n{share_link}\n\nThank you\nJitender",
            "canAccessCustomCalendar": true,
            "permissions": {
                "canViewAppointments": true,
                "canCreateAppointments": true
            },
        "data":[
                {
                    "id": 632,
                    "title": "Team Calendar",
                    "description": "This calendar is for booking appointments for a teammate's calendar.",
                    "color": "#2e90fa",
                    "calendarType": "direct_assign",
                    "calendarTypeText": "Direct Assign",
                    "calendarTypeSubtext": "Balanced by Group",
                    "appointmentsCount": 249,
                    "settersCount": 6,
                    "closersCount": 17,
                    "dispatchersCount": 0,
                    "bookingUrlText": "team-calendar-632",
                    "bookingUrl": "https://qa.repcard.com/jitender/cal/team-calendar-632",
                    "status": 1,
                    "isMyCalendar": false,
                    "isExpired": false,
                    "isCloser": true,
                    "isDispatcher": false,
                    "slotDuration": 15,
                    "slotDurationUnit": "mins",
                    "canChangeDuration": 0,
                    "calendarStartDate": "2025-12-04",
                    "calendarEndDate": null,
                    "sendConfirmationToParticipents": 0,
                    "timezone": "America/Phoenix",
                    "canChangeTimezone": 1,
                    "closerBeforeDateTime": 1,
                    "range": 1,
                    "days": 30,
                    "daysAvailabilityType": 1
                },
                {
                    "id": 1271,
                    "title": "Jitu Direct Assign",
                    "description": "test",
                    "color": "#630a3a",
                    "calendarType": "direct_assign",
                    "calendarTypeText": "Direct Assign",
                    "calendarTypeSubtext": "Balanced by Group",
                    "appointmentsCount": 7,
                    "settersCount": 14,
                    "closersCount": 14,
                    "dispatchersCount": 0,
                    "bookingUrlText": "jitu-direct-assign",
                    "bookingUrl": "https://qa.repcard.com/jitender/cal/jitu-direct-assign",
                    "status": 1,
                    "isMyCalendar": false,
                    "isExpired": false,
                    "isCloser": true,
                    "isDispatcher": false,
                    "slotDuration": 30,
                    "slotDurationUnit": "mins",
                    "canChangeDuration": 0,
                    "calendarStartDate": "2025-11-26",
                    "calendarEndDate": null,
                    "sendConfirmationToParticipents": 0,
                    "timezone": "Pacific/Honolulu",
                    "canChangeTimezone": 1,
                    "closerBeforeDateTime": 0,
                    "range": 1,
                    "days": 10,
                    "daysAvailabilityType": 1
                },
                {
                    "id": 1389,
                    "title": "Direct Assign India",
                    "description": "",
                    "color": "#2f9004",
                    "calendarType": "direct_assign",
                    "calendarTypeText": "Direct Assign",
                    "calendarTypeSubtext": "Balanced by Group",
                    "appointmentsCount": 4,
                    "settersCount": 2,
                    "closersCount": 14,
                    "dispatchersCount": 0,
                    "bookingUrlText": "direct-assign-india",
                    "bookingUrl": "https://qa.repcard.com/jitender/cal/direct-assign-india",
                    "status": 0,
                    "isMyCalendar": false,
                    "isExpired": false,
                    "isCloser": true,
                    "isDispatcher": false,
                    "slotDuration": 30,
                    "slotDurationUnit": "mins",
                    "canChangeDuration": 0,
                    "calendarStartDate": "2025-10-14",
                    "calendarEndDate": null,
                    "sendConfirmationToParticipents": 0,
                    "timezone": "Asia/Kolkata",
                    "canChangeTimezone": 0,
                    "closerBeforeDateTime": 0,
                    "range": 3,
                    "days": null,
                    "daysAvailabilityType": 2
                },
                {
                    "id": 1401,
                    "title": "Office Calendar",
                    "description": "",
                    "color": "#8e5dd9",
                    "calendarType": "direct_assign",
                    "calendarTypeText": "Direct Assign",
                    "calendarTypeSubtext": "Balanced by Group",
                    "appointmentsCount": 2,
                    "settersCount": 1,
                    "closersCount": 1,
                    "dispatchersCount": 0,
                    "bookingUrlText": "office-calendar",
                    "bookingUrl": "https://qa.repcard.com/jitender/cal/office-calendar",
                    "status": 1,
                    "isMyCalendar": false,
                    "isExpired": false,
                    "isCloser": true,
                    "isDispatcher": false,
                    "slotDuration": 120,
                    "slotDurationUnit": "mins",
                    "canChangeDuration": 0,
                    "calendarStartDate": "2025-10-06",
                    "calendarEndDate": null,
                    "sendConfirmationToParticipents": 0,
                    "timezone": "Asia/Kolkata",
                    "canChangeTimezone": 0,
                    "closerBeforeDateTime": 0,
                    "range": 3,
                    "days": null,
                    "daysAvailabilityType": 2
                },
                {
                    "id": 1453,
                    "title": "844 Calendar",
                    "description": "",
                    "color": "#6a2409",
                    "calendarType": "direct_assign",
                    "calendarTypeText": "Direct Assign",
                    "calendarTypeSubtext": "Balanced by Group",
                    "appointmentsCount": 2,
                    "settersCount": 0,
                    "closersCount": 0,
                    "dispatchersCount": 0,
                    "bookingUrlText": "844-calendar",
                    "bookingUrl": null,
                    "status": 1,
                    "isMyCalendar": false,
                    "isExpired": true,
                    "isCloser": false,
                    "isDispatcher": false,
                    "slotDuration": 30,
                    "slotDurationUnit": "mins",
                    "canChangeDuration": 0,
                    "calendarStartDate": "2024-09-19",
                    "calendarEndDate": "2024-09-27",
                    "sendConfirmationToParticipents": 0,
                    "timezone": "Asia/Kolkata",
                    "canChangeTimezone": 0,
                    "closerBeforeDateTime": 0,
                    "range": 2,
                    "days": null,
                    "daysAvailabilityType": 2
                },
                {
                    "id": 1457,
                    "title": "Meeting Ends Calendar",
                    "description": "Meeting Ends Calendar",
                    "color": "#467ff0",
                    "calendarType": "direct_assign",
                    "calendarTypeText": "Direct Assign",
                    "calendarTypeSubtext": "Balanced by Group",
                    "appointmentsCount": 2,
                    "settersCount": 0,
                    "closersCount": 0,
                    "dispatchersCount": 0,
                    "bookingUrlText": "meeting-ends-calendar",
                    "bookingUrl": null,
                    "status": 1,
                    "isMyCalendar": false,
                    "isExpired": false,
                    "isCloser": false,
                    "isDispatcher": false,
                    "slotDuration": 30,
                    "slotDurationUnit": "mins",
                    "canChangeDuration": 0,
                    "calendarStartDate": "2024-05-08",
                    "calendarEndDate": null,
                    "sendConfirmationToParticipents": 0,
                    "timezone": "Asia/Kolkata",
                    "canChangeTimezone": 0,
                    "closerBeforeDateTime": 0,
                    "range": 3,
                    "days": null,
                    "daysAvailabilityType": 2
                },
                {
                    "id": 1461,
                    "title": "RSU-188",
                    "description": "RSU-188",
                    "color": "#0266b5",
                    "calendarType": "direct_assign",
                    "calendarTypeText": "Direct Assign",
                    "calendarTypeSubtext": "Balanced by Group",
                    "appointmentsCount": 2,
                    "settersCount": 4,
                    "closersCount": 3,
                    "dispatchersCount": 0,
                    "bookingUrlText": "rsu-188",
                    "bookingUrl": null,
                    "status": 1,
                    "isMyCalendar": false,
                    "isExpired": false,
                    "isCloser": false,
                    "isDispatcher": false,
                    "slotDuration": 30,
                    "slotDurationUnit": "mins",
                    "canChangeDuration": 0,
                    "calendarStartDate": "2024-06-03",
                    "calendarEndDate": null,
                    "sendConfirmationToParticipents": 0,
                    "timezone": "Asia/Kolkata",
                    "canChangeTimezone": 0,
                    "closerBeforeDateTime": 0,
                    "range": 3,
                    "days": null,
                    "daysAvailabilityType": 2
                },
                {
                    "id": 1555,
                    "title": "C1",
                    "description": "",
                    "color": "#f539f2",
                    "calendarType": "direct_assign",
                    "calendarTypeText": "Direct Assign",
                    "calendarTypeSubtext": "Balanced by Group",
                    "appointmentsCount": 16,
                    "settersCount": 0,
                    "closersCount": 0,
                    "dispatchersCount": 0,
                    "bookingUrlText": "c1",
                    "bookingUrl": null,
                    "status": 1,
                    "isMyCalendar": false,
                    "isExpired": true,
                    "isCloser": false,
                    "isDispatcher": false,
                    "slotDuration": 30,
                    "slotDurationUnit": "mins",
                    "canChangeDuration": 0,
                    "calendarStartDate": "2024-09-12",
                    "calendarEndDate": "2024-09-14",
                    "sendConfirmationToParticipents": 0,
                    "timezone": "Asia/Kolkata",
                    "canChangeTimezone": 0,
                    "closerBeforeDateTime": 0,
                    "range": 1,
                    "days": null,
                    "daysAvailabilityType": 2
                },
                {
                    "id": 2190,
                    "title": "My Calendar",
                    "description": "This calendar is for booking appointments for yourself.",
                    "color": "#F97066",
                    "calendarType": "direct_assign",
                    "calendarTypeText": "Direct Assign",
                    "calendarTypeSubtext": "Balanced by Group",
                    "appointmentsCount": 775,
                    "settersCount": 0,
                    "closersCount": 0,
                    "dispatchersCount": 0,
                    "bookingUrlText": null,
                    "bookingUrl": null,
                    "status": 1,
                    "isMyCalendar": true,
                    "isExpired": false,
                    "isCloser": false,
                    "isDispatcher": false,
                    "slotDuration": 30,
                    "slotDurationUnit": "min",
                    "canChangeDuration": 0,
                    "calendarStartDate": null,
                    "calendarEndDate": null,
                    "sendConfirmationToParticipents": 0,
                    "timezone": "Asia/Kolkata",
                    "canChangeTimezone": 1,
                    "closerBeforeDateTime": 0,
                    "range": 0,
                    "days": null,
                    "daysAvailabilityType": 2
                },
                {
                    "id": 2632,
                    "title": "Test-TimeZone_001",
                    "description": "Test-TimeZone_001",
                    "color": "#ff2828",
                    "calendarType": "direct_assign",
                    "calendarTypeText": "Direct Assign",
                    "calendarTypeSubtext": "Balanced by Group",
                    "appointmentsCount": 0,
                    "settersCount": 0,
                    "closersCount": 0,
                    "dispatchersCount": 0,
                    "bookingUrlText": "test-timezone_001",
                    "bookingUrl": null,
                    "status": 1,
                    "isMyCalendar": false,
                    "isExpired": false,
                    "isCloser": false,
                    "isDispatcher": false,
                    "slotDuration": 30,
                    "slotDurationUnit": "mins",
                    "canChangeDuration": 0,
                    "calendarStartDate": "2024-07-08",
                    "calendarEndDate": null,
                    "sendConfirmationToParticipents": 0,
                    "timezone": "Australia/Melbourne",
                    "canChangeTimezone": 0,
                    "closerBeforeDateTime": 0,
                    "range": 3,
                    "days": null,
                    "daysAvailabilityType": 2
                },
                {
                    "id": 2659,
                    "title": "0 buffer test",
                    "description": "",
                    "color": "#662ecf",
                    "calendarType": "direct_assign",
                    "calendarTypeText": "Direct Assign",
                    "calendarTypeSubtext": "Balanced by Group",
                    "appointmentsCount": 1,
                    "settersCount": 3,
                    "closersCount": 3,
                    "dispatchersCount": 0,
                    "bookingUrlText": "0-buffer-test",
                    "bookingUrl": "https://qa.repcard.com/jitender/cal/0-buffer-test",
                    "status": 1,
                    "isMyCalendar": false,
                    "isExpired": false,
                    "isCloser": true,
                    "isDispatcher": false,
                    "slotDuration": 60,
                    "slotDurationUnit": "mins",
                    "canChangeDuration": 0,
                    "calendarStartDate": "2025-10-06",
                    "calendarEndDate": null,
                    "sendConfirmationToParticipents": 0,
                    "timezone": "America/Phoenix",
                    "canChangeTimezone": 1,
                    "closerBeforeDateTime": 0,
                    "range": 3,
                    "days": null,
                    "daysAvailabilityType": 2
                },
                {
                    "id": 2664,
                    "title": "DA SC3",
                    "description": "test setter can change closer permission",
                    "color": "#751644",
                    "calendarType": "direct_assign",
                    "calendarTypeText": "Direct Assign",
                    "calendarTypeSubtext": "Balanced by Group",
                    "appointmentsCount": 5,
                    "settersCount": 2,
                    "closersCount": 0,
                    "dispatchersCount": 0,
                    "bookingUrlText": "da-sc3",
                    "bookingUrl": null,
                    "status": 1,
                    "isMyCalendar": false,
                    "isExpired": false,
                    "isCloser": false,
                    "isDispatcher": false,
                    "slotDuration": 30,
                    "slotDurationUnit": "mins",
                    "canChangeDuration": 0,
                    "calendarStartDate": "2024-11-13",
                    "calendarEndDate": null,
                    "sendConfirmationToParticipents": 0,
                    "timezone": "Asia/Kolkata",
                    "canChangeTimezone": 0,
                    "closerBeforeDateTime": 0,
                    "range": 3,
                    "days": null,
                    "daysAvailabilityType": 2
                },
                {
                    "id": 2682,
                    "title": "south dispatch",
                    "description": "",
                    "color": "#a0dba9",
                    "calendarType": "dispatcher",
                    "calendarTypeText": "Dispatcher",
                    "calendarTypeSubtext": "Balanced by Group",
                    "appointmentsCount": 15,
                    "settersCount": 3,
                    "closersCount": 2,
                    "dispatchersCount": 1,
                    "bookingUrlText": "south-dispatch",
                    "bookingUrl": "https://qa.repcard.com/cal/south-dispatch",
                    "status": 1,
                    "isMyCalendar": false,
                    "isExpired": false,
                    "isCloser": false,
                    "isDispatcher": false,
                    "slotDuration": 90,
                    "slotDurationUnit": "mins",
                    "canChangeDuration": 1,
                    "calendarStartDate": "2025-10-06",
                    "calendarEndDate": null,
                    "sendConfirmationToParticipents": 0,
                    "timezone": "America/New_York",
                    "canChangeTimezone": 1,
                    "closerBeforeDateTime": 0,
                    "range": 3,
                    "days": null,
                    "daysAvailabilityType": 2
                },
                {
                    "id": 2691,
                    "title": "part2",
                    "description": "part2",
                    "color": "#aab4c0",
                    "calendarType": "direct_assign",
                    "calendarTypeText": "Direct Assign",
                    "calendarTypeSubtext": "Balanced by Group",
                    "appointmentsCount": 1,
                    "settersCount": 3,
                    "closersCount": 0,
                    "dispatchersCount": 0,
                    "bookingUrlText": "part2",
                    "bookingUrl": null,
                    "status": 1,
                    "isMyCalendar": false,
                    "isExpired": false,
                    "isCloser": false,
                    "isDispatcher": false,
                    "slotDuration": 30,
                    "slotDurationUnit": "mins",
                    "canChangeDuration": 0,
                    "calendarStartDate": "2024-09-13",
                    "calendarEndDate": null,
                    "sendConfirmationToParticipents": 0,
                    "timezone": "Asia/Kolkata",
                    "canChangeTimezone": 0,
                    "closerBeforeDateTime": 0,
                    "range": 3,
                    "days": null,
                    "daysAvailabilityType": 2
                },
                {
                    "id": 2727,
                    "title": "Test-aug-01",
                    "description": "",
                    "color": "#e2dac2",
                    "calendarType": "round_robin",
                    "calendarTypeText": "Round Robin",
                    "calendarTypeSubtext": "Balanced by Group",
                    "appointmentsCount": 1,
                    "settersCount": 15,
                    "closersCount": 2,
                    "dispatchersCount": 0,
                    "bookingUrlText": "test-aug-01",
                    "bookingUrl": "https://qa.repcard.com/cal/test-aug-01",
                    "status": 1,
                    "isMyCalendar": false,
                    "isExpired": false,
                    "isCloser": true,
                    "isDispatcher": false,
                    "slotDuration": 30,
                    "slotDurationUnit": "mins",
                    "canChangeDuration": 0,
                    "calendarStartDate": "2024-08-21",
                    "calendarEndDate": null,
                    "sendConfirmationToParticipents": 0,
                    "timezone": "Asia/Kolkata",
                    "canChangeTimezone": 0,
                    "closerBeforeDateTime": 0,
                    "range": 3,
                    "days": null,
                    "daysAvailabilityType": 2
                },
                {
                    "id": 2728,
                    "title": "test-aug-RR",
                    "description": "",
                    "color": "#15d178",
                    "calendarType": "direct_assign",
                    "calendarTypeText": "Direct Assign",
                    "calendarTypeSubtext": "Balanced by Group",
                    "appointmentsCount": 0,
                    "settersCount": 1,
                    "closersCount": 1,
                    "dispatchersCount": 0,
                    "bookingUrlText": "test-aug-rr",
                    "bookingUrl": null,
                    "status": 1,
                    "isMyCalendar": false,
                    "isExpired": false,
                    "isCloser": false,
                    "isDispatcher": false,
                    "slotDuration": 30,
                    "slotDurationUnit": "mins",
                    "canChangeDuration": 0,
                    "calendarStartDate": "2024-09-25",
                    "calendarEndDate": null,
                    "sendConfirmationToParticipents": 0,
                    "timezone": "Asia/Kolkata",
                    "canChangeTimezone": 0,
                    "closerBeforeDateTime": 0,
                    "range": 3,
                    "days": null,
                    "daysAvailabilityType": 2
                },
                {
                    "id": 2820,
                    "title": "RR test 55",
                    "description": "",
                    "color": "#02c208",
                    "calendarType": "round_robin",
                    "calendarTypeText": "Round Robin",
                    "calendarTypeSubtext": "Balanced by Group",
                    "appointmentsCount": 1,
                    "settersCount": 1,
                    "closersCount": 1,
                    "dispatchersCount": 0,
                    "bookingUrlText": "rr-test-55",
                    "bookingUrl": "https://qa.repcard.com/cal/rr-test-55",
                    "status": 1,
                    "isMyCalendar": false,
                    "isExpired": false,
                    "isCloser": false,
                    "isDispatcher": false,
                    "slotDuration": 15,
                    "slotDurationUnit": "mins",
                    "canChangeDuration": 1,
                    "calendarStartDate": "2024-09-03",
                    "calendarEndDate": null,
                    "sendConfirmationToParticipents": 0,
                    "timezone": "Asia/Kolkata",
                    "canChangeTimezone": 0,
                    "closerBeforeDateTime": 0,
                    "range": 3,
                    "days": null,
                    "daysAvailabilityType": 2
                },
                {
                    "id": 2872,
                    "title": "844 Calendar",
                    "description": "",
                    "color": "#6a2409",
                    "calendarType": "direct_assign",
                    "calendarTypeText": "Direct Assign",
                    "calendarTypeSubtext": "Balanced by Group",
                    "appointmentsCount": 0,
                    "settersCount": 0,
                    "closersCount": 0,
                    "dispatchersCount": 0,
                    "bookingUrlText": "844-calendar-",
                    "bookingUrl": null,
                    "status": 1,
                    "isMyCalendar": false,
                    "isExpired": true,
                    "isCloser": false,
                    "isDispatcher": false,
                    "slotDuration": 30,
                    "slotDurationUnit": "mins",
                    "canChangeDuration": 0,
                    "calendarStartDate": "2024-09-19",
                    "calendarEndDate": "2024-10-19",
                    "sendConfirmationToParticipents": 0,
                    "timezone": "Asia/Kolkata",
                    "canChangeTimezone": 1,
                    "closerBeforeDateTime": 0,
                    "range": 2,
                    "days": null,
                    "daysAvailabilityType": 2
                },
                {
                    "id": 2874,
                    "title": "Jitu Direct Assign",
                    "description": "",
                    "color": "#630a3a",
                    "calendarType": "direct_assign",
                    "calendarTypeText": "Direct Assign",
                    "calendarTypeSubtext": "Balanced by Group",
                    "appointmentsCount": 0,
                    "settersCount": 0,
                    "closersCount": 0,
                    "dispatchersCount": 0,
                    "bookingUrlText": "jitu-direct-assign-",
                    "bookingUrl": null,
                    "status": 1,
                    "isMyCalendar": false,
                    "isExpired": false,
                    "isCloser": false,
                    "isDispatcher": false,
                    "slotDuration": 30,
                    "slotDurationUnit": "mins",
                    "canChangeDuration": 0,
                    "calendarStartDate": "2024-09-19",
                    "calendarEndDate": null,
                    "sendConfirmationToParticipents": 0,
                    "timezone": "Pacific/Honolulu",
                    "canChangeTimezone": 1,
                    "closerBeforeDateTime": 0,
                    "range": 1,
                    "days": 10,
                    "daysAvailabilityType": 1
                },
                {
                    "id": 2962,
                    "title": "xyz",
                    "description": "",
                    "color": "#0097ff",
                    "calendarType": "direct_assign",
                    "calendarTypeText": "Direct Assign",
                    "calendarTypeSubtext": "Power Ranking",
                    "appointmentsCount": 0,
                    "settersCount": 0,
                    "closersCount": 0,
                    "dispatchersCount": 0,
                    "bookingUrlText": "xyz12",
                    "bookingUrl": null,
                    "status": 1,
                    "isMyCalendar": false,
                    "isExpired": false,
                    "isCloser": false,
                    "isDispatcher": false,
                    "slotDuration": 30,
                    "slotDurationUnit": "mins",
                    "canChangeDuration": 0,
                    "calendarStartDate": "2024-10-17",
                    "calendarEndDate": null,
                    "sendConfirmationToParticipents": 0,
                    "timezone": "Asia/Kolkata",
                    "canChangeTimezone": 0,
                    "closerBeforeDateTime": 0,
                    "range": 3,
                    "days": null,
                    "daysAvailabilityType": 2
                }
            ]
       ,
        "meta": {
            "request_id": "5c28e734-15a5-47b8-99c1-a1a4054fc968",
            "timestamp": "2026-01-07T11:44:31.396999Z",
            "pagination": {
                "total": 67,
                "perPage": 20,
                "currentPage": 1,
                "lastPage": 4,
                "nextPageUrl": "http://calendar-qa.repcard.com/api/v1/calendars?page=2&limit=20&authUserId=2&authCompanyId=5&canAccessCustomCalendar=1&permissions%5Bcalendar%5D%5Bmanage%5D%5Ballowed%5D=1&permissions%5Bcalendar%5D%5Bmanage%5D%5BwithLevel%5D=0&permissions%5Bappointments%5D%5Bview%5D%5Ballowed%5D=1&permissions%5Bappointments%5D%5Bview%5D%5BwithLevel%5D=1&permissions%5Bappointments%5D%5Bview%5D%5Blevel%5D=1&permissions%5Bappointments%5D%5Bmanage%5D%5Ballowed%5D=1&permissions%5Bappointments%5D%5Bmanage%5D%5BwithLevel%5D=1&permissions%5Bappointments%5D%5Bmanage%5D%5Blevel%5D=1&permissions%5Bappointments%5D%5Bdelete%5D%5Ballowed%5D=1&permissions%5Bappointments%5D%5Bdelete%5D%5BwithLevel%5D=1&permissions%5Bappointments%5D%5Bdelete%5D%5Blevel%5D=1",
                "prevPageUrl": null
            }
        }
    }
}